final_project_1
…
d1 %>%
  filter(stu_grp == "Asian" |
           stu_grp == "White" |
           stu_grp == "Multi-Racial" |
           stu_grp == "Native Hawaiian/Pacific Islander" |
           stu_grp == "Hispanic/Latino" |
           stu_grp == "Black/African American" |
           stu_grp == "American Indian/Alaska Native") %>%
  group_by(county) 

## # A tibble: 1,869 x 9
## # Groups:   county [37]
##    county district_id district inst_id inst_name inst_type stu_grp_type
##    <chr>  <chr>       <chr>    <chr>   <chr>     <chr>     <chr>       
##  1 All C 9999        Statewi 9999    Statewide State     Race/Ethnic
##  2 All C 9999        Statewi 9999    Statewide State     Race/Ethnic
##  3 All C 9999        Statewi 9999    Statewide State     Race/Ethnic
##  4 All C 9999        Statewi 9999    Statewide State     Race/Ethnic
##  5 All C 9999        Statewi 9999    Statewide State     Race/Ethnic
##  6 All C 9999        Statewi 9999    Statewide State     Race/Ethnic
##  7 All C 9999        Statewi 9999    Statewide State     Race/Ethnic
##  8 Baker  1894        Baker S 1894    Baker SD District  Race/Ethnic
##  9 Baker  1894        Baker S 1894    Baker SD District  Race/Ethnic
## 10 Baker  1894        Baker S 1894    Baker SD District  Race/Ethnic
## #  with 1,859 more rows, and 2 more variables: stu_grp <chr>,
## #   avg_self_reg <dbl>
…
